[
  {
    "source_id": "b7c38753-7740-433d-9f88-18a7c72b3ef1",
    "town": "Канберра"
  },
  {
    "source_id": "b7c38753-7740-433d-9f88-18a7c72b3ef1",
    "town": "Москва"
  },
  {
    "source_id": "1529d2a1-18f5-480a-9ea2-d771eddc4153",
    "town": "Прага"
  },
  {
    "source_id": "1",
    "town": "Стокгольм"
  },
  {
    "source_id": "11111111",
    "town": "Лондон"
  },
  {
    "source_id": "1529d2a1-18f5-480a-9ea2-d771eddc4153",
    "town": "Москва"
  },
  {
    "source_id": "f10793ad-0b50-4a5e-b493-eadef7121a19",
    "town": "Прага"
  },
  {
    "source_id": "adb48e81-6818-4c77-be0a-13500b3bee1d",
    "town": "Стокгольм"
  },
  {
    "source_id": "adb48e81-6818-4c77-be0a-13500b3bee1d",
    "town": "Лондон"
  }
]